<?xml version="1.0" encoding="UTF-8"?>
<svg width="16px" height="16px" viewBox="0 0 16 16" version="1.1" xmlns="http://www.w3.org/2000/svg" xmlns:xlink="http://www.w3.org/1999/xlink">
    <!-- Generator: Sketch 63.1 (92452) - https://sketch.com -->
    <title>icon/16/active/arrow--down</title>
    <desc>Created with Sketch.</desc>
    <g id="icon/16/active/arrow--down" stroke="none" stroke-width="1" fill="none" fill-rule="evenodd">
        <g id="element/icon/16/active/arrow--right" transform="translate(0.000000, 3.000000)">
            <rect id="BG" fill-rule="nonzero" x="0" y="0" width="16" height="10"></rect>
            <polyline id="Path-2" stroke="#FF6600" stroke-linecap="round" stroke-linejoin="round" transform="translate(8.000000, 5.000000) rotate(-270.000000) translate(-8.000000, -5.000000) " points="4 -2 12 4.99460255 4 12"></polyline>
        </g>
    </g>
</svg>